{
    "name": "CampaignProduct",
    "fields": [
        {
            "fieldName": "price",
            "fieldType": "Double"
        },
        {
            "fieldName": "isActive",
            "fieldType": "Boolean"
        },
        {
            "fieldName": "discount",
            "fieldType": "Double"
        }
    ],
    "relationships": [
        {
            "relationshipType": "many-to-one",
            "relationshipName": "campaign",
            "otherEntityName": "campaign",
            "otherEntityField": "id",
            "otherEntityRelationshipName": "campaignProduct"
        },
        {
            "relationshipType": "many-to-one",
            "relationshipName": "product",
            "otherEntityName": "product",
            "otherEntityField": "id",
            "otherEntityRelationshipName": "campaignProduct"
        }
    ],
    "changelogDate": "20180910181109",
    "entityTableName": "campaign_product",
    "dto": "mapstruct",
    "pagination": "pagination",
    "service": "serviceImpl",
    "jpaMetamodelFiltering": false,
    "fluentMethods": true,
    "clientRootFolder": "",
    "applications": "*",
    "angularJSSuffix": "salesBen"
}